32 32
33 33
34 34
35 35
36 36
37 37
38 38
39 39
40 40
41 41
42 42
43 43
44 44
45 45
46 46
47 47
48 48
49 49
50 50
51 51
52 52
53 53
54 54
55 55
56 56
57 57
58 58
59 59
60 60
61 61
62 62
63 63
64 64
65 65
66 66
67 67
68 68
69 69
70 70
71 71
72 72
73 73
74 74
75 75
76 76
77 77
78 78
79 79
80 80
81 81
82 82
83 83
84 84
85 85
86 86
87 87
88 88
89 89
90 90
91 91
92 92
93 93
94 94
95 95
96 96
97 97
98 98
99 99
100 100
101 101
102 102
103 103
104 104
105 105
106 106
107 107
108 108
109 109
110 110
111 111
112 112
113 113
114 114
115 115
116 116
117 117
118 118
118 161
119 119
120 120
121 121
122 122
123 123
124 124
125 125
126 126
127 127
160 160
161 179
162 128
163 129
164 180
165 181
166 182
167 183
168 184
169 138
170 140
171 142
172 141
173 150
174 190
175 143
176 225
177 226
178 247
179 231
180 228
181 229
182 186
182 246
183 250
184 233
185 234
186 235
187 236
188 237
189 238
190 239
191 240
192 242
193 243
194 244
195 245
196 230
197 232
198 227
199 254
200 251
201 253
202 255
203 249
204 248
205 252
206 224
207 241
208 193
209 194
210 215
211 199
212 196
213 197
214 170
214 214
215 218
216 201
217 202
218 203
219 204
220 205
221 206
222 207
223 208
224 210
225 211
226 212
227 213
228 198
229 200
230 195
231 222
232 219
233 221
234 223
235 217
236 216
237 220
238 192
239 209
240 185
241 163
242 144
243 131
244 164
245 165
246 166
247 167
248 168
249 154
250 156
251 158
252 157
253 135
254 174
255 159
